{
    "editor": [
        {
            "icon": "",
            "key": "settings",
            "header": "Settings",
            "disable": false,
            "fields": [
                {
                    "key": "backgroundImage",
                    "header": "Template background image",
                    "type": "image"
                },
                {
                    "key": "cards",
                    "header": "Card",
                    "type": "array",
                    "fields": [
                        {
                            "key": "card1",
                            "header": "Card 1",
                            "type": "array",
                            "fields": [
                                {
                                    "key": "image",
                                    "header": "Image 1",
                                    "type": "image"
                                },
                                {
                                    "key": "label",
                                    "header": "Label 1",
                                    "type": "text"
                                }
                            ]
                        },
                        {
                            "key": "card2",
                            "header": "Card 2",
                            "type": "array",
                            "fields": [
                                {
                                    "key": "image",
                                    "header": "Image 2",
                                    "type": "image"
                                },
                                {
                                    "key": "label",
                                    "header": "Label 2",
                                    "type": "text"
                                }
                            ]
                        }
                    ]
                }
            ]
        }
    ],
    "config": {
        "settings": {
            "backgroundImage": "https://frontend.apps.playcent.com/a43f4d79e20449a38ed4ad556b4ad054/assets/ezgif-2-3d557613fbc5.gif",
            "cards": {
                "card1": {
                    "image": "https://frontend.apps.playcent.com/a43f4d79e20449a38ed4ad556b4ad054/assets/207810 (1).gif",
                    "label": "Expectation"
                },
                "card2": {
                    "image": "https://frontend.apps.playcent.com/a43f4d79e20449a38ed4ad556b4ad054/assets/ezgif-2-3d557613fbc5.gif",
                    "label": "reality"
                }
            }
        }
    }
}